[
  {
    "prefix": "0811",
    "prefix_name": "Telkomsel"
  },
  {
    "prefix": "0812",
    "prefix_name": "Telkomsel"
  },
  {
    "prefix": "0813",
    "prefix_name": "Telkomsel"
  },
  {
    "prefix": "0814",
    "prefix_name": "Indosat"
  },
  {
    "prefix": "0815",
    "prefix_name": "Indosat"
  },
  {
    "prefix": "0816",
    "prefix_name": "Indosat"
  },
  {
    "prefix": "0817",
    "prefix_name": "XL"
  },
  {
    "prefix": "0818",
    "prefix_name": "XL"
  },
  {
    "prefix": "0819",
    "prefix_name": "XL"
  },
  {
    "prefix": "0821",
    "prefix_name": "Telkomsel"
  },
  {
    "prefix": "0822",
    "prefix_name": "Telkomsel"
  },
  {
    "prefix": "0823",
    "prefix_name": "Telkomsel"
  },
  {
    "prefix": "0828",
    "prefix_name": "Ceria"
  },
  {
    "prefix": "0831",
    "prefix_name": "Axis"
  },
  {
    "prefix": "0832",
    "prefix_name": "Axis"
  },
  {
    "prefix": "0833",
    "prefix_name": "Axis"
  },
  {
    "prefix": "0838",
    "prefix_name": "Axis"
  },
  {
    "prefix": "0851",
    "prefix_name": "Telkomsel"
  },
  {
    "prefix": "0852",
    "prefix_name": "Telkomsel"
  },
  {
    "prefix": "0853",
    "prefix_name": "Telkomsel"
  },
  {
    "prefix": "0855",
    "prefix_name": "Indosat"
  },
  {
    "prefix": "0856",
    "prefix_name": "Indosat"
  },
  {
    "prefix": "0857",
    "prefix_name": "Indosat"
  },
  {
    "prefix": "0858",
    "prefix_name": "Indosat"
  },
  {
    "prefix": "0859",
    "prefix_name": "XL"
  },
  {
    "prefix": "0877",
    "prefix_name": "XL"
  },
  {
    "prefix": "0878",
    "prefix_name": "XL"
  },
  {
    "prefix": "0881",
    "prefix_name": "Smart"
  },
  {
    "prefix": "0882",
    "prefix_name": "Smart"
  },
  {
    "prefix": "0883",
    "prefix_name": "Smart"
  },
  {
    "prefix": "0884",
    "prefix_name": "Smart"
  },
  {
    "prefix": "0885",
    "prefix_name": "Smart"
  },
  {
    "prefix": "0886",
    "prefix_name": "Smart"
  },
  {
    "prefix": "0887",
    "prefix_name": "Smart"
  },
  {
    "prefix": "0888",
    "prefix_name": "Smart"
  },
  {
    "prefix": "0889",
    "prefix_name": "Smart"
  },
  {
    "prefix": "0895",
    "prefix_name": "Three"
  },
  {
    "prefix": "0896",
    "prefix_name": "Three"
  },
  {
    "prefix": "0897",
    "prefix_name": "Three"
  },
  {
    "prefix": "0898",
    "prefix_name": "Three"
  },
  {
    "prefix": "0899",
    "prefix_name": "Three"
  }
]