{
  "project_info": {
    "project_number": "451695092641",
    "firebase_url": "https://saldomu-a5645.firebaseio.com",
    "project_id": "saldomu-a5645",
    "storage_bucket": "saldomu-a5645.appspot.com"
  },
  "client": [
    {
      "client_info": {
        "mobilesdk_app_id": "1:451695092641:android:5907cb76a7a7650c",
        "android_client_info": {
          "package_name": "com.sgo.saldomu"
        }
      },
      "oauth_client": [
        {
          "client_id": "451695092641-3ch648fd9qjf6f14cpr3bagta8neoj20.apps.googleusercontent.com",
          "client_type": 3
        }
      ],
      "api_key": [
        {
          "current_key": "AIzaSyCdDMVkLYc5tTtZvTUK-wlpEKqHL1ecAcw"
        }
      ],
      "services": {
        "analytics_service": {
          "status": 1
        },
        "appinvite_service": {
          "status": 1,
          "other_platform_oauth_client": []
        },
        "ads_service": {
          "status": 2
        }
      }
    }
  ],
  "configuration_version": "1"
}